{
  "Template": {
    "TemplateName": "TaskAssign",
    "SubjectPart": "ShieldTasker! Congratulations you have been assign to a task",
    "TextPart": "Hi {{name}},\r\n Welcome to shieldtasker.com - Please click here to verify your simply verify your email address",
    "HtmlPart": "<h1>Hi {{name}}</h1><p>Welcome to shieldtasker.com - Please click here to verify your email address</p>"
  }
}
